%YAML 1.1
%TAG !u! tag:unity3d.com,2011:
--- !u!114 &11400000
MonoBehaviour:
  m_ObjectHideFlags: 0
  m_CorrespondingSourceObject: {fileID: 0}
  m_PrefabInstance: {fileID: 0}
  m_PrefabAsset: {fileID: 0}
  m_GameObject: {fileID: 0}
  m_Enabled: 1
  m_EditorHideFlags: 0
  m_Script: {fileID: 11500000, guid: 87958c18fdb240145bdf70090bf6a979, type: 3}
  m_Name: Abyssale 6
  m_EditorClassIdentifier: 
  powerDiscipline: 0
  powerRank: 4
  powerName: "Enveloppe T\xE9n\xE9breuse"
  powerDescription: "\xC9tend son ombre et inflige des malus/d\xE9g\xE2ts \xE0 tout
    ce qui se trouve \xE0 l'int\xE9rieur  "
  isExhaltation: 1
  isDoubleExhaltation: 0
  isComposedPower: 0
  requiredDiscipline: 0
  requiredDisciplineRank: 0
