%YAML 1.1
%TAG !u! tag:unity3d.com,2011:
--- !u!114 &11400000
MonoBehaviour:
  m_ObjectHideFlags: 0
  m_CorrespondingSourceObject: {fileID: 0}
  m_PrefabInstance: {fileID: 0}
  m_PrefabAsset: {fileID: 0}
  m_GameObject: {fileID: 0}
  m_Enabled: 1
  m_EditorHideFlags: 0
  m_Script: {fileID: 11500000, guid: 87958c18fdb240145bdf70090bf6a979, type: 3}
  m_Name: "C\xE9l\xE9rit\xE9 6"
  m_EditorClassIdentifier: 
  powerDiscipline: 3
  powerRank: 4
  powerName: 'Tir Infaillible  '
  powerDescription: "L\u2019attaque \xE0 distance suivante touche \xE0 100%. Impossibilit\xE9
    de lancer un jet d\u2019esquive pour la cible  "
  isExhaltation: 0
  isDoubleExhaltation: 0
  isComposedPower: 1
  requiredDiscipline: 2
  requiredDisciplineRank: 2
