%YAML 1.1
%TAG !u! tag:unity3d.com,2011:
--- !u!114 &11400000
MonoBehaviour:
  m_ObjectHideFlags: 0
  m_CorrespondingSourceObject: {fileID: 0}
  m_PrefabInstance: {fileID: 0}
  m_PrefabAsset: {fileID: 0}
  m_GameObject: {fileID: 0}
  m_Enabled: 1
  m_EditorHideFlags: 0
  m_Script: {fileID: 11500000, guid: 87958c18fdb240145bdf70090bf6a979, type: 3}
  m_Name: Domination 1
  m_EditorClassIdentifier: 
  powerDiscipline: 4
  powerRank: 1
  powerName: "Brouillage m\xE9moriel"
  powerDescription: "Fait oublier les 5 derni\xE8res minutes \xE0 la cible  "
  isExhaltation: 0
  isDoubleExhaltation: 0
  isComposedPower: 0
  requiredDiscipline: 0
  requiredDisciplineRank: 0
