%YAML 1.1
%TAG !u! tag:unity3d.com,2011:
--- !u!114 &11400000
MonoBehaviour:
  m_ObjectHideFlags: 0
  m_CorrespondingSourceObject: {fileID: 0}
  m_PrefabInstance: {fileID: 0}
  m_PrefabAsset: {fileID: 0}
  m_GameObject: {fileID: 0}
  m_Enabled: 1
  m_EditorHideFlags: 0
  m_Script: {fileID: 11500000, guid: 87958c18fdb240145bdf70090bf6a979, type: 3}
  m_Name: Domination 4
  m_EditorClassIdentifier: 
  powerDiscipline: 4
  powerRank: 2
  powerName: "Ali\xE9nation  "
  powerDescription: "Inflige des d\xE9g\xE2ts de volont\xE9 par la parole  "
  isExhaltation: 1
  isDoubleExhaltation: 0
  isComposedPower: 1
  requiredDiscipline: 6
  requiredDisciplineRank: 2
