%YAML 1.1
%TAG !u! tag:unity3d.com,2011:
--- !u!114 &11400000
MonoBehaviour:
  m_ObjectHideFlags: 0
  m_CorrespondingSourceObject: {fileID: 0}
  m_PrefabInstance: {fileID: 0}
  m_PrefabAsset: {fileID: 0}
  m_GameObject: {fileID: 0}
  m_Enabled: 1
  m_EditorHideFlags: 0
  m_Script: {fileID: 11500000, guid: 87958c18fdb240145bdf70090bf6a979, type: 3}
  m_Name: Occultation 5
  m_EditorClassIdentifier: 
  powerDiscipline: 6
  powerRank: 3
  powerName: 'Masque aux Milles Visages  '
  powerDescription: "Jauge de sant\xE9 aTous ceux qui voient le vampire voient quelqu\u2019un
    d\u2019ordinaire pour l\u2019endroit o\xF9 il se trouve.  gment\xE9e du niveau
    de force d\u2019\xE2me  "
  isExhaltation: 1
  isDoubleExhaltation: 0
  isComposedPower: 0
  requiredDiscipline: 0
  requiredDisciplineRank: 0
