%YAML 1.1
%TAG !u! tag:unity3d.com,2011:
--- !u!114 &11400000
MonoBehaviour:
  m_ObjectHideFlags: 0
  m_CorrespondingSourceObject: {fileID: 0}
  m_PrefabInstance: {fileID: 0}
  m_PrefabAsset: {fileID: 0}
  m_GameObject: {fileID: 0}
  m_Enabled: 1
  m_EditorHideFlags: 0
  m_Script: {fileID: 11500000, guid: 87958c18fdb240145bdf70090bf6a979, type: 3}
  m_Name: Presence 3
  m_EditorClassIdentifier: 
  powerDiscipline: 7
  powerRank: 2
  powerName: Baiser Persistant
  powerDescription: "S\u2019il le souhaite, les victimes du baiser du vampire obtiennent
    un boost social pour une nuit, puis un malus social pour plusieurs nuits. D\xE9clenche
    un ph\xE9nom\xE8ne d\u2019addiction violent chez la victime.  "
  isExhaltation: 0
  isDoubleExhaltation: 0
  isComposedPower: 0
  requiredDiscipline: 0
  requiredDisciplineRank: 0
