%YAML 1.1
%TAG !u! tag:unity3d.com,2011:
--- !u!114 &11400000
MonoBehaviour:
  m_ObjectHideFlags: 0
  m_CorrespondingSourceObject: {fileID: 0}
  m_PrefabInstance: {fileID: 0}
  m_PrefabAsset: {fileID: 0}
  m_GameObject: {fileID: 0}
  m_Enabled: 1
  m_EditorHideFlags: 0
  m_Script: {fileID: 11500000, guid: 87958c18fdb240145bdf70090bf6a979, type: 3}
  m_Name: Presence 7
  m_EditorClassIdentifier: 
  powerDiscipline: 7
  powerRank: 4
  powerName: "Voix Imp\xE9rieuse  "
  powerDescription: 'En parlant, le vampire utilise naturellement tous les pouvoirs
    de la discipline Domination.  '
  isExhaltation: 0
  isDoubleExhaltation: 0
  isComposedPower: 1
  requiredDiscipline: 4
  requiredDisciplineRank: 1
