%YAML 1.1
%TAG !u! tag:unity3d.com,2011:
--- !u!114 &11400000
MonoBehaviour:
  m_ObjectHideFlags: 0
  m_CorrespondingSourceObject: {fileID: 0}
  m_PrefabInstance: {fileID: 0}
  m_PrefabAsset: {fileID: 0}
  m_GameObject: {fileID: 0}
  m_Enabled: 1
  m_EditorHideFlags: 0
  m_Script: {fileID: 11500000, guid: 87958c18fdb240145bdf70090bf6a979, type: 3}
  m_Name: Proteisme 6
  m_EditorClassIdentifier: 
  powerDiscipline: 8
  powerRank: 3
  powerName: 'Fusion avec la terre  '
  powerDescription: "Peut fusionner avec le sol naturel jusqu\u2019\xE0 la nuit suivante."
  isExhaltation: 1
  isDoubleExhaltation: 0
  isComposedPower: 0
  requiredDiscipline: 0
  requiredDisciplineRank: 0
