%YAML 1.1
%TAG !u! tag:unity3d.com,2011:
--- !u!114 &11400000
MonoBehaviour:
  m_ObjectHideFlags: 0
  m_CorrespondingSourceObject: {fileID: 0}
  m_PrefabInstance: {fileID: 0}
  m_PrefabAsset: {fileID: 0}
  m_GameObject: {fileID: 0}
  m_Enabled: 1
  m_EditorHideFlags: 0
  m_Script: {fileID: 11500000, guid: 87958c18fdb240145bdf70090bf6a979, type: 3}
  m_Name: Proteisme 7
  m_EditorClassIdentifier: 
  powerDiscipline: 8
  powerRank: 3
  powerName: 'Artisanat de Chaire  '
  powerDescription: "Permet de changer la structure du corps d\u2019un sujet de mani\xE8re
    permanente. (Peut donner des bonus de d\xE9g\xE2ts et d\u2019armure)  "
  isExhaltation: 1
  isDoubleExhaltation: 0
  isComposedPower: 1
  requiredDiscipline: 4
  requiredDisciplineRank: 2
