%YAML 1.1
%TAG !u! tag:unity3d.com,2011:
--- !u!1045 &1
EditorBuildSettings:
  m_ObjectHideFlags: 0
  serializedVersion: 2
  m_Scenes:
  - enabled: 1
    path: Assets/Scenes/Vampire.unity
    guid: f8caa93ac6448cd44b1f8e9a6eb70aaf
  m_configObjects: {}
